{"entries":[{"id":12807196,"name":"Hansen-Willms","summary":null,"user_id":220090,"created_at":"2016/04/11 13:46:00 -0400","updated_at":"2016/04/11 13:46:00 -0400","is_archived":false,"is_example":null,"source_id":null,"primary_contact_id":null,"deal_stage_id":727384,"probability":50,"status":null,"expected_close_date":null,"closed_time":null,"expected_close_date_event_id":null,"company_id":null,"import_id":null,"value":"82788.88","deal_loss_reason_id":null,"deal_loss_reason_notes":null,"is_sample":false,"revenue_type_id":null,"person_ids":[],"shared_user_ids":[],"value_in_cents":8278888,"date_of_first_activity":null,"days_since_last_activity":null,"hours_to_first_activity":null,"days_in_stage":641,"user":{"id":220090,"first_name":"Glengarry","last_name":"Ross"},"deal_stage":{"id":727384,"percent":50,"name":"Presentation"},"people":[],"currency":{"name":"American Dollar","code":"USD","symbol":"$"},"deal_loss_reason":null,"primary_contact":null,"company":null,"revenue_type":null,"collaborators":[],"custom_fields":{"custom_label_1279429":null,"custom_label_1279432":"41394.0"}},{"id":12807199,"name":"Breitenberg, Marks and Corwin","summary":null,"user_id":220090,"created_at":"2016/04/11 13:46:00 -0400","updated_at":"2016/04/11 13:46:00 -0400","is_archived":false,"is_example":null,"source_id":null,"primary_contact_id":null,"deal_stage_id":727390,"probability":100,"status":null,"expected_close_date":null,"closed_time":"2016/04/11 13:46:00 -0400","expected_close_date_event_id":null,"company_id":null,"import_id":null,"value":"59096.93","deal_loss_reason_id":null,"deal_loss_reason_notes":null,"is_sample":false,"revenue_type_id":null,"person_ids":[],"shared_user_ids":[],"value_in_cents":5909693,"date_of_first_activity":null,"days_since_last_activity":null,"hours_to_first_activity":null,"days_in_stage":641,"user":{"id":220090,"first_name":"Glengarry","last_name":"Ross"},"deal_stage":{"id":727390,"percent":100,"name":"Won"},"people":[],"currency":{"name":"American Dollar","code":"USD","symbol":"$"},"deal_loss_reason":null,"primary_contact":null,"company":null,"revenue_type":null,"collaborators":[],"custom_fields":{"custom_label_1279429":null,"custom_label_1279432":"59096.0"}},{"id":12807202,"name":"Will LLC","summary":null,"user_id":220090,"created_at":"2016/04/11 13:46:00 -0400","updated_at":"2016/04/11 13:46:00 -0400","is_archived":false,"is_example":null,"source_id":null,"primary_contact_id":null,"deal_stage_id":727381,"probability":25,"status":null,"expected_close_date":null,"closed_time":null,"expected_close_date_event_id":null,"company_id":null,"import_id":null,"value":"78181.64","deal_loss_reason_id":null,"deal_loss_reason_notes":null,"is_sample":false,"revenue_type_id":null,"person_ids":[],"shared_user_ids":[],"value_in_cents":7818164,"date_of_first_activity":null,"days_since_last_activity":null,"hours_to_first_activity":null,"days_in_stage":641,"user":{"id":220090,"first_name":"Glengarry","last_name":"Ross"},"deal_stage":{"id":727381,"percent":25,"name":"Request for Info"},"people":[],"currency":{"name":"American Dollar","code":"USD","symbol":"$"},"deal_loss_reason":null,"primary_contact":null,"company":null,"revenue_type":null,"collaborators":[],"custom_fields":{"custom_label_1279429":null,"custom_label_1279432":"19545.0"}},{"id":12807205,"name":"Lakin-Reynolds","summary":null,"user_id":220090,"created_at":"2016/04/11 13:46:00 -0400","updated_at":"2016/04/11 13:46:00 -0400","is_archived":false,"is_example":null,"source_id":null,"primary_contact_id":null,"deal_stage_id":727387,"probability":75,"status":null,"expected_close_date":null,"closed_time":null,"expected_close_date_event_id":null,"company_id":null,"import_id":null,"value":"6276.93","deal_loss_reason_id":null,"deal_loss_reason_notes":null,"is_sample":false,"revenue_type_id":null,"person_ids":[],"shared_user_ids":[],"value_in_cents":627693,"date_of_first_activity":null,"days_since_last_activity":null,"hours_to_first_activity":null,"days_in_stage":641,"user":{"id":220090,"first_name":"Glengarry","last_name":"Ross"},"deal_stage":{"id":727387,"percent":75,"name":"Negotiation"},"people":[],"currency":{"name":"American Dollar","code":"USD","symbol":"$"},"deal_loss_reason":null,"primary_contact":null,"company":null,"revenue_type":null,"collaborators":[],"custom_fields":{"custom_label_1279429":null,"custom_label_1279432":"4707.0"}},{"id":12807208,"name":"Kuvalis, Jakubowski and Deckow","summary":null,"user_id":220090,"created_at":"2016/04/11 13:46:00 -0400","updated_at":"2016/04/11 13:46:00 -0400","is_archived":false,"is_example":null,"source_id":null,"primary_contact_id":null,"deal_stage_id":727387,"probability":75,"status":null,"expected_close_date":null,"closed_time":null,"expected_close_date_event_id":null,"company_id":null,"import_id":null,"value":"76300.9","deal_loss_reason_id":null,"deal_loss_reason_notes":null,"is_sample":false,"revenue_type_id":null,"person_ids":[],"shared_user_ids":[],"value_in_cents":7630090,"date_of_first_activity":null,"days_since_last_activity":null,"hours_to_first_activity":null,"days_in_stage":641,"user":{"id":220090,"first_name":"Glengarry","last_name":"Ross"},"deal_stage":{"id":727387,"percent":75,"name":"Negotiation"},"people":[],"currency":{"name":"American Dollar","code":"USD","symbol":"$"},"deal_loss_reason":null,"primary_contact":null,"company":null,"revenue_type":null,"collaborators":[],"custom_fields":{"custom_label_1279429":null,"custom_label_1279432":"57225.0"}}],"pagination":{"page":1,"page_var":"page","per_page":5,"pages":20,"total":100}}